<?xml version="1.0" standalone="no"?>
<!DOCTYPE svg PUBLIC "-//W3C//DTD SVG 1.1//EN" "http://www.w3.org/Graphics/SVG/1.1/DTD/svg11.dtd">
<svg xmlns="http://www.w3.org/2000/svg">
<metadata>Copyright (C) 2019 by original authors @ fontello.com</metadata>
<defs>
<font id="fontello" horiz-adv-x="1000" >
<font-face font-family="fontello" font-weight="400" font-stretch="normal" units-per-em="1000" ascent="850" descent="-150" />
<missing-glyph horiz-adv-x="1000" />
<glyph glyph-name="desktop" unicode="&#xe800;" d="M0 100l0 625q0 39 27 66t67 28l812 0q39 0 67-28t27-66l0-625q0-39-27-66t-67-28l-312 0 0-37 195-25q23-6 23-32 0-13-8-22t-23-9l-562 0q-14 0-23 9t-8 22q0 26 23 32l195 25 0 37-312 0q-39 0-67 28t-27 66z m63 0q0-14 8-22t23-9l812 0q14 0 23 9t8 22l0 625q0 14-8 22t-23 9l-812 0q-14 0-23-9t-8-22l0-625z m62 125l0 437q0 14 9 23t22 9l688 0q13 0 22-9t9-23l0-437q0-14-9-22t-22-9l-688 0q-13 0-22 9t-9 22z m31 0l688 0 0 437-688 0 0-437z" horiz-adv-x="1000" />

<glyph glyph-name="videocam-outline" unicode="&#xe801;" d="M209 455q0 51 51 51 53 0 53-51 0-53-53-53-51 0-51 53z m520 312q60 0 104-40t51-96l89 29q25 8 46-8t22-41l0-313q0-25-21-42t-47-8l-89 30q-8-56-51-96t-104-40l-104 0 0-54q0-62-46-109t-110-46-107 43-49 107l0 59-157 0q-63 0-110 46t-46 110l0 313q0 64 46 110t110 46l573 0z m-260-730q20 0 36 16t16 35l0 105-105 0 0-105q3-21 17-36t36-15z m260 209q22 0 37 15t15 37l0 313q0 21-15 36t-37 15l-573 0q-21 0-37-15t-15-36l0-313q0-21 15-37t37-15l573 0z m209 125l0 167-104-31 0-105q6 0 104-31z" horiz-adv-x="1041" />

<glyph glyph-name="phone" unicode="&#xe802;" d="M786 158q0-15-6-39t-12-38q-11-28-68-60-52-28-103-28-15 0-30 2t-32 7-26 8-31 11-28 10q-54 20-97 47-71 44-148 120t-120 148q-27 43-46 97-2 5-10 28t-12 31-8 26-7 32-2 29q0 52 29 104 31 57 59 68 14 6 38 12t39 6q8 0 12-2 10-3 30-42 6-11 16-31t20-35 17-30q2-2 10-14t12-20 4-16q0-11-16-27t-35-31-34-30-16-25q0-5 3-13t4-11 8-14 7-10q42-77 97-132t131-97q1 0 10-6t14-8 11-5 13-2q10 0 25 16t30 34 31 35 28 16q7 0 15-4t20-12 14-10q14-8 30-17t36-20 30-17q39-19 42-29 2-4 2-12z" horiz-adv-x="785.7" />

<glyph glyph-name="volume" unicode="&#xe803;" d="M0 142l0 416 236 0 354 289 0-994-354 289-236 0z m652 35q73 74 73 176t-73 178l71 74q105-106 107-254 0-145-107-246z m118-119q123 119 123 295t-123 299l76 74q154-154 154-372t-154-372z" horiz-adv-x="1000" />

<glyph glyph-name="laptop" unicode="&#xf109;" d="M232 136q-37 0-63 26t-26 63v393q0 37 26 63t63 26h607q37 0 63-26t27-63v-393q0-37-27-63t-63-26h-607z m-18 482v-393q0-7 6-13t12-5h607q8 0 13 5t5 13v393q0 7-5 12t-13 6h-607q-7 0-12-6t-6-12z m768-518h89v-54q0-22-26-37t-63-16h-893q-36 0-63 16t-26 37v54h982z m-402-54q9 0 9 9t-9 9h-89q-9 0-9-9t9-9h89z" horiz-adv-x="1071.4" />
</font>
</defs>
</svg>