{
  "name": "",
  "css_prefix_text": "icon-",
  "css_use_suffix": false,
  "hinting": true,
  "units_per_em": 1000,
  "ascent": 850,
  "glyphs": [
    {
      "uid": "7697f1734d53461137f05faab3f79cf0",
      "css": "desktop",
      "code": 59392,
      "src": "linecons"
    },
    {
      "uid": "500fc1f109021e4b1de4deda2f7ed399",
      "css": "laptop",
      "code": 61705,
      "src": "fontawesome"
    },
    {
      "uid": "3d8b20949cd6f782067f9e652967f8a8",
      "css": "videocam-outline",
      "code": 59393,
      "src": "typicons"
    },
    {
      "uid": "9f7e588c66cfd6891f6f507cf6f6596b",
      "css": "phone",
      "code": 59394,
      "src": "fontawesome"
    },
    {
      "uid": "b59b3b618699b467541f631edd5a02ed",
      "css": "volume",
      "code": 59395,
      "src": "elusive"
    }
  ]
}